{
  "name": "nx-monorepo-demo-e2e",
  "$schema": "../../node_modules/nx/schemas/project-schema.json",
  "sourceRoot": "apps/nx-monorepo-demo-e2e/src",
  "projectType": "application",
  "targets": {
    "e2e": {
      "executor": "@nx/cypress:cypress",
      "options": {
        "cypressConfig": "apps/nx-monorepo-demo-e2e/cypress.config.ts",
        "devServerTarget": "nx-monorepo-demo:serve:development",
        "testingType": "e2e"
      },
      "configurations": {
        "production": {
          "devServerTarget": "nx-monorepo-demo:serve:production"
        },
        "ci": {
          "devServerTarget": "nx-monorepo-demo:serve-static"
        }
      }
    },
    "lint": {
      "executor": "@nx/linter:eslint",
      "outputs": ["{options.outputFile}"],
      "options": {
        "lintFilePatterns": ["apps/nx-monorepo-demo-e2e/**/*.{js,ts}"]
      }
    }
  },
  "tags": [],
  "implicitDependencies": ["nx-monorepo-demo"]
}
